<?xml version="1.0" encoding="utf-8"?>
<!-- Generator: Adobe Illustrator 19.1.0, SVG Export Plug-In . SVG Version: 6.00 Build 0)  -->
<svg version="1.1" id="Layer_1" xmlns="http://www.w3.org/2000/svg" xmlns:xlink="http://www.w3.org/1999/xlink" x="0px" y="0px"
	 viewBox="0 0 289.9 60.4" style="enable-background:new 0 0 289.9 60.4;" xml:space="preserve">
<style type="text/css">
	.st0{fill:#302A2A;}
	.st1{fill:#1E9F52;}
</style>
<g>
	<path class="st0" d="M77.2,39.2h-2.7V19.4H67V17h17.5v2.4h-7.4V39.2z"/>
	<path class="st0" d="M98,31.3c0,1.2-0.2,2.4-0.5,3.4c-0.4,1-0.9,1.9-1.5,2.6c-0.6,0.7-1.4,1.3-2.3,1.7s-1.9,0.6-3.1,0.6
		c-1.2,0-2.2-0.2-3.1-0.6s-1.7-1-2.4-1.7s-1.1-1.6-1.5-2.6c-0.3-1-0.5-2.1-0.5-3.4c0-1.3,0.2-2.4,0.5-3.4c0.4-1,0.9-1.9,1.5-2.6
		c0.6-0.7,1.4-1.3,2.4-1.7s2-0.6,3.1-0.6c1.2,0,2.2,0.2,3.1,0.6s1.7,1,2.4,1.7c0.6,0.7,1.1,1.6,1.5,2.6C97.8,28.9,98,30.1,98,31.3z
		 M95.3,31.3c0-1-0.1-1.8-0.4-2.6c-0.2-0.8-0.6-1.4-1-1.9c-0.4-0.5-0.9-0.9-1.5-1.2c-0.6-0.3-1.2-0.4-1.9-0.4s-1.3,0.1-1.9,0.4
		c-0.6,0.3-1.1,0.7-1.5,1.2s-0.8,1.2-1,1.9c-0.2,0.8-0.4,1.6-0.4,2.6c0,1,0.1,1.8,0.4,2.6c0.2,0.8,0.6,1.4,1,1.9s0.9,0.9,1.5,1.2
		c0.6,0.3,1.2,0.4,1.9,0.4s1.3-0.1,1.9-0.4c0.6-0.3,1.1-0.7,1.5-1.2c0.4-0.5,0.8-1.2,1-1.9C95.2,33.2,95.3,32.3,95.3,31.3z"/>
	<path class="st0" d="M100.9,19.8v-2.9h2.6v2.9H100.9z M100.9,39.2V23.4h2.6v15.8H100.9z"/>
	<path class="st0" d="M106.5,31.5c0-1.1,0.1-2.1,0.3-2.9c0.2-0.8,0.5-1.6,0.9-2.2s0.8-1.2,1.2-1.6c0.5-0.4,1-0.8,1.5-1
		c0.5-0.3,1-0.5,1.6-0.6c0.5-0.1,1-0.2,1.5-0.2c1,0,1.8,0.2,2.5,0.5c0.7,0.3,1.3,0.8,1.9,1.4h0v-9.7h2.6v24h-1.9l-0.5-1.8H118
		c-0.2,0.3-0.4,0.5-0.7,0.8s-0.6,0.5-0.9,0.7c-0.4,0.2-0.8,0.4-1.2,0.5c-0.5,0.1-1,0.2-1.6,0.2c-0.9,0-1.7-0.1-2.5-0.4
		s-1.6-0.8-2.2-1.4s-1.2-1.5-1.6-2.5C106.7,34.2,106.5,33,106.5,31.5z M109.2,31.5c0,0.9,0.1,1.7,0.3,2.5c0.2,0.7,0.5,1.4,0.9,1.9
		s0.9,0.9,1.4,1.2c0.6,0.3,1.2,0.4,1.9,0.4c0.5,0,1-0.1,1.5-0.2c0.4-0.1,0.8-0.3,1.2-0.5c0.3-0.2,0.6-0.5,0.9-0.7s0.4-0.5,0.6-0.7
		V27c-0.5-0.5-1.1-1-1.8-1.3c-0.7-0.3-1.4-0.5-2.3-0.5c-0.5,0-1,0.1-1.5,0.3c-0.5,0.2-1,0.5-1.5,1c-0.5,0.5-0.8,1.1-1.1,1.9
		C109.4,29.2,109.2,30.2,109.2,31.5z"/>
	<path class="st0" d="M130.6,39.6c-0.8,0-1.6-0.1-2.2-0.3c-0.7-0.2-1.2-0.4-1.7-0.7c-0.5-0.3-0.9-0.7-1.3-1.2
		c-0.3-0.4-0.6-0.9-0.8-1.5c-0.2-0.4-0.3-0.8-0.3-1.3s-0.1-1-0.1-1.6v-9.7h2.6v9.7c0,0.9,0.1,1.6,0.3,2.2c0.3,0.7,0.7,1.2,1.3,1.6
		c0.6,0.4,1.3,0.6,2.3,0.6c1,0,1.8-0.2,2.3-0.6c0.6-0.4,1-1,1.3-1.7c0.2-0.5,0.3-1.2,0.3-2v-9.7h2.6v9.7c0,0.5,0,1-0.1,1.5
		c-0.1,0.5-0.2,0.9-0.3,1.3c-0.2,0.5-0.5,1-0.8,1.5c-0.3,0.5-0.8,0.9-1.3,1.2c-0.5,0.3-1.1,0.6-1.8,0.8S131.4,39.6,130.6,39.6z"/>
	<path class="st0" d="M143.4,25.6L143.4,25.6c0.3-0.4,0.7-0.7,1-1s0.7-0.6,1.2-0.8c0.4-0.2,0.9-0.4,1.4-0.5s1-0.2,1.6-0.2
		c0.6,0,1.2,0.1,1.8,0.2c0.6,0.2,1.2,0.4,1.7,0.9c0.5,0.4,0.9,1,1.2,1.7c0.3,0.7,0.5,1.7,0.5,2.8v10.6h-2.6V29.1
		c0-1.3-0.2-2.2-0.7-2.9c-0.5-0.6-1.3-1-2.4-1c-0.9,0-1.8,0.2-2.6,0.7c-0.8,0.5-1.5,1.2-2.1,2v11.2h-2.6v-24h2.6V25.6z"/>
	<path class="st0" d="M163.7,39.6c-0.8,0-1.6-0.1-2.2-0.3c-0.7-0.2-1.2-0.4-1.7-0.7c-0.5-0.3-0.9-0.7-1.3-1.2
		c-0.3-0.4-0.6-0.9-0.8-1.5c-0.2-0.4-0.3-0.8-0.3-1.3s-0.1-1-0.1-1.6v-9.7h2.6v9.7c0,0.9,0.1,1.6,0.3,2.2c0.3,0.7,0.7,1.2,1.3,1.6
		c0.6,0.4,1.3,0.6,2.3,0.6c1,0,1.8-0.2,2.3-0.6c0.6-0.4,1-1,1.3-1.7c0.2-0.5,0.3-1.2,0.3-2v-9.7h2.6v9.7c0,0.5,0,1-0.1,1.5
		c-0.1,0.5-0.2,0.9-0.3,1.3c-0.2,0.5-0.5,1-0.8,1.5s-0.8,0.9-1.3,1.2s-1.1,0.6-1.8,0.8C165.3,39.5,164.5,39.6,163.7,39.6z
		 M159.3,19.8V17h2.6v2.8H159.3z M165.6,19.8V17h2.6v2.8H165.6z"/>
	<path class="st0" d="M180,23c0.7,0,1.3,0.1,1.8,0.3s0.9,0.4,1.3,0.6s0.7,0.5,0.9,0.7c0.2,0.2,0.4,0.4,0.4,0.6h0.1l0.5-1.8h1.9v16.7
		c0,1.2-0.2,2.3-0.6,3.2s-1,1.7-1.7,2.2c-0.7,0.6-1.6,1-2.6,1.3s-2.1,0.4-3.4,0.4c-1,0-2-0.1-2.8-0.3c-0.8-0.2-1.5-0.4-1.9-0.7v-2.2
		c0.4,0.2,0.7,0.3,1.1,0.4c0.4,0.1,0.7,0.2,1.1,0.3c0.4,0.1,0.8,0.1,1.2,0.2c0.4,0,0.8,0,1.3,0c1.8,0,3.3-0.4,4.2-1.3
		c1-0.9,1.5-2.2,1.5-4v-2.1h0c-0.6,0.6-1.2,1.1-2,1.4s-1.6,0.5-2.6,0.5c-0.4,0-0.9,0-1.4-0.1s-1-0.3-1.5-0.5s-1-0.6-1.5-0.9
		s-0.9-0.9-1.2-1.5c-0.4-0.6-0.6-1.3-0.9-2.1s-0.3-1.7-0.3-2.8c0-1.5,0.2-2.7,0.6-3.8c0.4-1.1,0.9-2,1.6-2.7
		c0.7-0.7,1.4-1.2,2.2-1.6S179.1,23,180,23z M175.7,31.4c0,1.2,0.1,2.3,0.4,3c0.3,0.8,0.7,1.4,1.1,1.8c0.5,0.4,1,0.7,1.5,0.9
		c0.5,0.2,1.1,0.2,1.5,0.2c0.8,0,1.5-0.2,2.2-0.5c0.7-0.3,1.3-0.8,1.8-1.3v-8.2c-0.1-0.2-0.3-0.4-0.6-0.7c-0.3-0.3-0.6-0.5-0.9-0.7
		c-0.3-0.2-0.7-0.4-1.2-0.5s-0.9-0.2-1.4-0.2c-0.8,0-1.4,0.2-2,0.5s-1.1,0.7-1.5,1.3c-0.4,0.5-0.7,1.2-0.9,2
		C175.8,29.7,175.7,30.5,175.7,31.4z"/>
	<path class="st0" d="M190.7,19.8v-2.9h2.6v2.9H190.7z M190.8,39.2V23.4h2.6v15.8H190.8z"/>
	<path class="st0" d="M204.8,37.4c0.9,0,1.6-0.1,2.3-0.2c0.7-0.1,1.4-0.3,2.1-0.6v2.1c-0.6,0.3-1.3,0.5-2.1,0.7
		c-0.8,0.2-1.7,0.2-2.7,0.2c-1.1,0-2.2-0.1-3.2-0.4c-1-0.3-1.8-0.8-2.6-1.4c-0.7-0.6-1.3-1.5-1.7-2.5c-0.4-1-0.6-2.3-0.6-3.7
		c0-1.4,0.2-2.7,0.6-3.7s0.9-1.9,1.6-2.6c0.7-0.7,1.4-1.2,2.3-1.6c0.9-0.4,1.8-0.5,2.7-0.5c0.9,0,1.7,0.1,2.5,0.4
		c0.8,0.3,1.4,0.8,2,1.4c0.6,0.6,1,1.4,1.3,2.4c0.3,1,0.5,2.2,0.5,3.6c0,0.1,0,0.2,0,0.3s0,0.3,0,0.6h-10.9c0,1,0.2,1.9,0.5,2.6
		c0.3,0.7,0.7,1.3,1.2,1.7c0.5,0.4,1.1,0.8,1.9,1C203.2,37.3,203.9,37.4,204.8,37.4z M203.4,25.2c-0.6,0-1.1,0.1-1.7,0.3
		c-0.5,0.2-1,0.5-1.3,0.9s-0.7,0.9-0.9,1.4c-0.2,0.5-0.4,1.1-0.4,1.7h8.1c0-0.6-0.1-1.2-0.2-1.7c-0.2-0.5-0.4-1-0.7-1.4
		s-0.7-0.7-1.2-0.9C204.5,25.3,204,25.2,203.4,25.2z"/>
	<path class="st0" d="M220.4,37.4c0.9,0,1.6-0.1,2.3-0.2c0.7-0.1,1.4-0.3,2.1-0.6v2.1c-0.6,0.3-1.3,0.5-2.1,0.7
		c-0.8,0.2-1.7,0.2-2.7,0.2c-1.1,0-2.2-0.1-3.2-0.4c-1-0.3-1.8-0.8-2.6-1.4c-0.7-0.6-1.3-1.5-1.7-2.5c-0.4-1-0.6-2.3-0.6-3.7
		c0-1.4,0.2-2.7,0.6-3.7s0.9-1.9,1.6-2.6c0.7-0.7,1.4-1.2,2.3-1.6c0.9-0.4,1.8-0.5,2.7-0.5c0.9,0,1.7,0.1,2.5,0.4
		c0.8,0.3,1.4,0.8,2,1.4c0.6,0.6,1,1.4,1.3,2.4c0.3,1,0.5,2.2,0.5,3.6c0,0.1,0,0.2,0,0.3s0,0.3,0,0.6h-10.9c0,1,0.2,1.9,0.5,2.6
		c0.3,0.7,0.7,1.3,1.2,1.7c0.5,0.4,1.1,0.8,1.9,1C218.9,37.3,219.6,37.4,220.4,37.4z M219.1,25.2c-0.6,0-1.1,0.1-1.7,0.3
		c-0.5,0.2-1,0.5-1.3,0.9s-0.7,0.9-0.9,1.4c-0.2,0.5-0.4,1.1-0.4,1.7h8.1c0-0.6-0.1-1.2-0.2-1.7c-0.2-0.5-0.4-1-0.7-1.4
		s-0.7-0.7-1.2-0.9C220.2,25.3,219.7,25.2,219.1,25.2z"/>
	<path class="st0" d="M231,25.6L231,25.6c0.3-0.4,0.7-0.7,1-1c0.3-0.3,0.7-0.6,1.2-0.8c0.4-0.2,0.9-0.4,1.4-0.6s1.1-0.2,1.7-0.2
		c0.7,0,1.4,0.1,2,0.3s1.2,0.5,1.6,1s0.8,1,1.1,1.7s0.4,1.6,0.4,2.6v10.6h-2.6V29.1c0-1.4-0.3-2.3-0.8-2.9c-0.5-0.6-1.3-0.9-2.3-0.9
		c-0.9,0-1.7,0.2-2.6,0.7s-1.5,1.2-2.1,2v11.2h-2.6V23.4h2L231,25.6z"/>
	<path class="st0" d="M245.6,39.2V36h3.2v3.2H245.6z"/>
	<path class="st0" d="M260.2,37.4c0.9,0,1.6-0.1,2.3-0.2c0.7-0.1,1.4-0.3,2.1-0.6v2.1c-0.6,0.3-1.3,0.5-2.1,0.7
		c-0.8,0.2-1.7,0.2-2.7,0.2c-1.1,0-2.2-0.1-3.2-0.4c-1-0.3-1.8-0.8-2.6-1.4c-0.7-0.6-1.3-1.5-1.7-2.5c-0.4-1-0.6-2.3-0.6-3.7
		c0-1.4,0.2-2.7,0.6-3.7s0.9-1.9,1.6-2.6c0.7-0.7,1.4-1.2,2.3-1.6c0.9-0.4,1.8-0.5,2.7-0.5c0.9,0,1.7,0.1,2.5,0.4
		c0.8,0.3,1.4,0.8,2,1.4c0.6,0.6,1,1.4,1.3,2.4c0.3,1,0.5,2.2,0.5,3.6c0,0.1,0,0.2,0,0.3s0,0.3,0,0.6h-10.9c0,1,0.2,1.9,0.5,2.6
		c0.3,0.7,0.7,1.3,1.2,1.7c0.5,0.4,1.1,0.8,1.9,1C258.6,37.3,259.4,37.4,260.2,37.4z M258.8,25.2c-0.6,0-1.1,0.1-1.7,0.3
		c-0.5,0.2-1,0.5-1.3,0.9s-0.7,0.9-0.9,1.4c-0.2,0.5-0.4,1.1-0.4,1.7h8.1c0-0.6-0.1-1.2-0.2-1.7c-0.2-0.5-0.4-1-0.7-1.4
		s-0.7-0.7-1.2-0.9C260,25.3,259.4,25.2,258.8,25.2z"/>
	<path class="st0" d="M275.9,37.4c0.9,0,1.6-0.1,2.3-0.2c0.7-0.1,1.4-0.3,2.1-0.6v2.1c-0.6,0.3-1.3,0.5-2.1,0.7
		c-0.8,0.2-1.7,0.2-2.7,0.2c-1.1,0-2.2-0.1-3.2-0.4c-1-0.3-1.8-0.8-2.6-1.4c-0.7-0.6-1.3-1.5-1.7-2.5c-0.4-1-0.6-2.3-0.6-3.7
		c0-1.4,0.2-2.7,0.6-3.7s0.9-1.9,1.6-2.6c0.7-0.7,1.4-1.2,2.3-1.6c0.9-0.4,1.8-0.5,2.7-0.5c0.9,0,1.7,0.1,2.5,0.4
		c0.8,0.3,1.4,0.8,2,1.4c0.6,0.6,1,1.4,1.3,2.4c0.3,1,0.5,2.2,0.5,3.6c0,0.1,0,0.2,0,0.3s0,0.3,0,0.6H270c0,1,0.2,1.9,0.5,2.6
		c0.3,0.7,0.7,1.3,1.2,1.7c0.5,0.4,1.1,0.8,1.9,1C274.3,37.3,275.1,37.4,275.9,37.4z M274.5,25.2c-0.6,0-1.1,0.1-1.7,0.3
		c-0.5,0.2-1,0.5-1.3,0.9s-0.7,0.9-0.9,1.4c-0.2,0.5-0.4,1.1-0.4,1.7h8.1c0-0.6-0.1-1.2-0.2-1.7c-0.2-0.5-0.4-1-0.7-1.4
		s-0.7-0.7-1.2-0.9C275.7,25.3,275.1,25.2,274.5,25.2z"/>
</g>
<g>
	<g>
		<path class="st1" d="M21.7,19.3l-4.3-3.8V8.8c-5,3.5-8.8,8.7-10.3,14.8h7.4L21.7,19.3z"/>
		<path class="st1" d="M17.2,42.6c-0.9-3.3-1.4-6.8-1.1-10.2c0.2-3,0.9-5.7,2-8l-2.8,1.7H6.7c-0.2,1.2-0.3,2.4-0.3,3.6
			c0,7.1,2.9,13.5,7.6,18.1l0.2-0.1L17.2,42.6z"/>
		<path class="st1" d="M38.9,54c3.1-0.9,6-2.4,8.5-4.4l-2.2-3.8C43.8,49.3,41.6,52.3,38.9,54z"/>
		<path class="st1" d="M29.8,55c0.7,0.1,1.3,0.1,2,0.1c0.7,0,1.4,0,2-0.1l-2-2.1L29.8,55z"/>
		<path class="st1" d="M19,47.2c-0.2-0.5-0.5-1-0.7-1.5l-2.2,3.9c2.5,2,5.4,3.5,8.6,4.4C22.5,52.6,20.5,50.3,19,47.2z"/>
		<path class="st1" d="M22.9,17.1c0.5-0.7,2.1-3.2,4.1-4.2c0,0,0.4-3.1,3-4.2c-1.9-1.3-2.4-3.2-2.6-4c-2.7,0.5-5.2,1.3-7.5,2.6v7
			L22.9,17.1z"/>
		<path class="st1" d="M33.6,8.7c2.6,1.1,3,4.2,3,4.2c1.9,0.9,3.6,3.4,4.1,4.2l3-2.7v-7c-2.3-1.2-4.8-2.1-7.5-2.6
			C36,5.6,35.4,7.5,33.6,8.7z"/>
		<path class="st1" d="M31.4,8.4c0.1,0,0.2,0,0.3,0c0.1,0,0.2,0,0.3,0c2.3-1,2.9-3,3.1-3.8c-1.1-0.2-2.3-0.2-3.4-0.2
			c-1.1,0-2.3,0.1-3.4,0.2C28.5,5.4,29.1,7.5,31.4,8.4z"/>
		<path class="st1" d="M31.8,13.7c0,0-4.3,0-6.9,3.8c2-0.9,4.3-1.4,6.9-1.5c2.6,0,4.9,0.5,6.9,1.5C36,13.7,31.8,13.7,31.8,13.7z"/>
		<path class="st1" d="M24.2,20.7c-0.8,0.6-1.5,1.2-2.1,1.9c0.2,0,0.4-0.1,0.7-0.1c1.8,0,3.3,1.5,3.3,3.3c0,1.8-1.5,3.3-3.3,3.3
			c-1.5,0-2.7-0.9-3.1-2.2c-0.8,2.1-1.1,4.2-1.1,5.7c-0.3,4.9,0.7,9.4,2.3,12.9c0.6-0.7,1.5-1.1,2.5-1.1c1.8,0,3.3,1.5,3.3,3.3
			c0,1.4-0.8,2.6-2,3.1c1.2,1.1,2.4,1.8,3.6,2.1l2.3-2.3V40.3c-0.5,0.3-1.1,0.5-1.8,0.5c-1.8,0-3.3-1.5-3.3-3.3
			c0-1.8,1.5-3.3,3.3-3.3c0.7,0,1.3,0.2,1.8,0.5V18.6c-2,0.2-3.6,0.7-5,1.4L24.2,20.7z"/>
		<path class="st1" d="M41.7,19.3l7.2,4.3h7.4c-1.5-6.1-5.2-11.4-10.3-14.8v6.7L41.7,19.3z"/>
		<path class="st1" d="M39.4,20.8l-1.7-1c-1.3-0.6-2.9-1.1-4.8-1.2v2c0.3-0.1,0.7-0.2,1-0.2c1.8,0,3.3,1.5,3.3,3.3
			c0,1.8-1.5,3.3-3.3,3.3c-0.4,0-0.7-0.1-1-0.2v23.7l2.3,2.3c2.3-0.6,4.6-2.6,6.4-5.5c-1.6-0.2-2.9-1.6-2.9-3.3
			c0-1.8,1.5-3.3,3.3-3.3c0.8,0,1.5,0.3,2.1,0.7c0.7-2.7,1.1-5.8,0.9-9C44.8,29.7,43.8,24,39.4,20.8z M38.3,37.7
			c-1.8,0-3.3-1.5-3.3-3.3c0-1.8,1.5-3.3,3.3-3.3c1.8,0,3.3,1.5,3.3,3.3C41.6,36.2,40.1,37.7,38.3,37.7z"/>
		<path class="st1" d="M33.3,9.5v1.2l1.5,0.7C34.5,9.4,33.3,9.5,33.3,9.5z"/>
		<path class="st1" d="M30.3,9.5c0,0-1.2-0.1-1.5,1.8l1.5-0.7V9.5z"/>
		<path class="st1" d="M45.5,24.5c1.1,2.3,1.7,4.9,1.9,7.9c0.2,3.4-0.2,6.9-1.2,10.2l2.9,5.1l0.2,0.1c4.7-4.6,7.6-11,7.6-18.1
			c0-1.2-0.1-2.4-0.3-3.6h-8.5L45.5,24.5z"/>
	</g>
</g>
</svg>
